{
  "results": [
    {
      "kind": "record",
      "recordType": "research",
      "id": "symbols",
      "data": {
        "kind": "researchFlow",
        "goal": "Analyze this repository.",
        "intent": "symbols",
        "facets": [
          "symbols",
          "files"
        ],
        "mode": "analyze",
        "root": "/Users/guybary/Documents/octocode-mcp/packages/octocode-tools-core/src/oql",
        "flow": [
          {
            "id": "orient",
            "purpose": "Discover manifests, source files, and analysis boundaries.",
            "tools": [
              "localFindFiles",
              "localViewStructure"
            ],
            "produces": [
              "fileUniverse",
              "manifestSet"
            ],
            "evidence": "proof"
          },
          {
            "id": "manifest-graph",
            "purpose": "Extract package entrypoints, declared dependencies, workspace package names, and script hints.",
            "tools": [
              "package.json parser"
            ],
            "produces": [
              "entrypoints",
              "declaredDependencies",
              "workspacePackages"
            ],
            "evidence": "heuristic"
          },
          {
            "id": "symbol-inventory",
            "purpose": "Enumerate exports and declaration anchors for symbol-level questions.",
            "tools": [
              "localSearchCode structural",
              "lspGetSemantics documentSymbols"
            ],
            "produces": [
              "symbols",
              "lineHints"
            ],
            "evidence": "proof"
          },
          {
            "id": "reference-proof",
            "purpose": "Use references grouped by file to separate direct, external, and transitive retention.",
            "tools": [
              "lspGetSemantics references",
              "localSearchCode"
            ],
            "produces": [
              "directRefs",
              "externalRefs",
              "retainedBy",
              "transitiveDead"
            ],
            "evidence": "proof"
          }
        ],
        "summary": {
          "manifests": 0,
          "sourceFiles": 20,
          "entrypoints": 1,
          "reachableFiles": 1,
          "unusedFiles": 19,
          "unlistedDependencies": 0,
          "unusedDependencies": 0,
          "duplicateDependencies": 0,
          "exportedSymbols": 93,
          "candidateUnusedExports": 28,
          "transitiveDeadExports": 23,
          "nativeGraphFiles": 20,
          "nativeGraphDeclarations": 490,
          "nativeGraphCalls": 469
        },
        "graphCapabilities": {
          "graphFactExtensions": [
            "bash",
            "c",
            "cc",
            "cjs",
            "cpp",
            "cs",
            "cts",
            "cxx",
            "erl",
            "ex",
            "exs",
            "gemspec",
            "go",
            "h",
            "hcl",
            "hh",
            "hpp",
            "hrl",
            "hxx",
            "java",
            "js",
            "jsx",
            "kt",
            "kts",
            "lua",
            "mjs",
            "mts",
            "php",
            "proto",
            "py",
            "pyi",
            "r",
            "rake",
            "rb",
            "rs",
            "ru",
            "sbt",
            "sc",
            "scala",
            "sh",
            "swift",
            "tf",
            "tfvars",
            "ts",
            "tsx",
            "zig",
            "zsh"
          ],
          "capabilityCount": 47,
          "factFamilies": [
            "calls",
            "contains",
            "declarations",
            "exports",
            "imports"
          ],
          "sourceFilesByLanguage": {
            "ts": 20
          },
          "graphFilesByLanguage": {
            "ts": 20
          },
          "missingGraphFacts": []
        },
        "nativeGraphSummary": {
          "files": 20,
          "declarations": 490,
          "imports": 173,
          "exports": 149,
          "calls": 469,
          "edges": 607
        },
        "caveats": [
          "This is a smart research flow with native AST graph facts where available plus heuristic cross-file reachability. LSP references should be used before destructive cleanup.",
          "Graph capability coverage is explicit: tree-sitter/OXC facts are syntax inventory, not semantic deletion proof.",
          "Dynamic imports, framework entrypoints, generated files, test-only retention, and package-manager-specific workspace rules may require project-specific refinement."
        ],
        "graphSummary": {
          "subjects": 112,
          "facts": 112,
          "edges": 113,
          "byVerdict": {
            "reachable": 42,
            "candidate-dead": 28,
            "transitive-dead": 23,
            "candidate-unused-file": 19,
            "candidate-unused-dependency": 0,
            "unknown": 0
          }
        },
        "packetPage": {
          "currentPage": 1,
          "totalPages": 112,
          "itemsPerPage": 1,
          "totalItems": 112,
          "hasMore": true
        },
        "packets": [
          {
            "subject": {
              "id": "sym:adapters/compile.ts#CompiledMatch",
              "kind": "symbol",
              "name": "CompiledMatch",
              "symbolKind": "interface",
              "uri": "adapters/compile.ts",
              "range": {
                "start": {
                  "line": 15
                }
              }
            },
            "verdict": "candidate-dead",
            "proofStatus": "candidate",
            "why": [
              {
                "id": "sym:adapters/compile.ts#CompiledMatch:exports",
                "subject": {
                  "id": "sym:adapters/compile.ts#CompiledMatch",
                  "kind": "symbol",
                  "name": "CompiledMatch",
                  "symbolKind": "interface",
                  "uri": "adapters/compile.ts",
                  "range": {
                    "start": {
                      "line": 15
                    }
                  }
                },
                "claim": "exports",
                "source": "ast",
                "confidence": "exact",
                "flags": [
                  "declaration"
                ]
              }
            ],
            "retainedBy": [],
            "missingProof": [
              {
                "kind": "lsp-unavailable",
                "severity": "high",
                "location": {
                  "uri": "adapters/compile.ts",
                  "range": {
                    "start": {
                      "line": 15
                    }
                  }
                }
              }
            ],
            "risk": {
              "deleteRisk": "medium",
              "reason": "No reachable references found, but the scan is token-based. Confirm with LSP references (next.semantic) before deleting."
            },
            "next": {
              "next.fetch": {
                "query": {
                  "schema": "oql",
                  "target": "content",
                  "from": {
                    "kind": "local",
                    "path": "/Users/guybary/Documents/octocode-mcp/packages/octocode-tools-core/src/oql/adapters/compile.ts"
                  },
                  "fetch": {
                    "content": {
                      "range": {
                        "startLine": 15,
                        "contextLines": 3
                      },
                      "contentView": "exact"
                    }
                  }
                },
                "why": "Read the declaration at this symbol.",
                "confidence": "exact"
              },
              "next.semantic": {
                "query": {
                  "schema": "oql",
                  "target": "semantics",
                  "from": {
                    "kind": "local",
                    "path": "/Users/guybary/Documents/octocode-mcp/packages/octocode-tools-core/src/oql/adapters/compile.ts"
                  },
                  "params": {
                    "type": "references",
                    "symbolName": "CompiledMatch",
                    "lineHint": 15,
                    "includeDeclaration": false
                  }
                },
                "why": "Confirm references with LSP — upgrades this candidate to proof.",
                "confidence": "exact"
              },
              "next.search": {
                "query": {
                  "schema": "oql",
                  "target": "code",
                  "from": {
                    "kind": "local",
                    "path": "/Users/guybary/Documents/octocode-mcp/packages/octocode-tools-core/src/oql"
                  },
                  "where": {
                    "kind": "text",
                    "value": "CompiledMatch"
                  },
                  "view": "discovery"
                },
                "why": "Find string/dynamic usages of the name the reference scan may miss.",
                "confidence": "heuristic"
              }
            }
          }
        ]
      },
      "next": {
        "next.graph": {
          "query": {
            "schema": "oql",
            "target": "graph",
            "from": {
              "kind": "local",
              "path": "packages/octocode-tools-core/src/oql"
            },
            "params": {
              "intent": "symbols",
              "facets": [
                "symbols",
                "files"
              ],
              "maxFiles": 20,
              "mode": "prove",
              "proof": "lsp",
              "proofLimit": 1
            },
            "page": 1,
            "itemsPerPage": 1
          },
          "why": "Upgrade this candidate research to LSP-proven relationships for the current page (bounded proof).",
          "confidence": "exact"
        }
      },
      "proofGrade": "missing"
    }
  ],
  "pagination": {
    "currentPage": 1,
    "totalPages": 112,
    "itemsPerPage": 1,
    "totalItems": 112,
    "hasMore": true
  },
  "next": {
    "next.page": {
      "query": {
        "schema": "oql",
        "target": "research",
        "from": {
          "kind": "local",
          "path": "packages/octocode-tools-core/src/oql"
        },
        "view": "paginated",
        "page": 2,
        "itemsPerPage": 1,
        "params": {
          "intent": "symbols",
          "facets": [
            "symbols",
            "files"
          ],
          "maxFiles": 20
        }
      },
      "why": "More result pages remain.",
      "confidence": "exact"
    }
  },
  "diagnostics": [],
  "provenance": [
    {
      "backend": "smartOqlResearch",
      "source": {
        "kind": "local",
        "path": "packages/octocode-tools-core/src/oql"
      }
    }
  ],
  "evidence": {
    "answerReady": false,
    "complete": false,
    "kind": "candidate"
  }
}