{
  "results": [
    {
      "kind": "code",
      "path": "src/vanilla.ts",
      "snippet": "export interface StoreMutators<S,A>{}export type StoreMutatorIdentifier = keyof StoreMutators<unknown,unknown> type CreateStore ={<T,Mos extends [StoreMutatorIdentifier,unknown][] = []>(initializer: StateCreator<T,[],Mos>,): Mutate<StoreApi<T>,Mos>",
      "matchIndices": [
        {
          "start": 121,
          "end": 132,
          "lineOffset": 0
        }
      ],
      "metadata": {
        "owner": "pmndrs",
        "repo": "zustand",
        "queryId": "q1"
      },
      "next": {
        "next.fetch": {
          "query": {
            "schema": "oql",
            "target": "content",
            "from": {
              "kind": "github",
              "repo": "pmndrs/zustand"
            },
            "scope": {
              "path": "src/vanilla.ts"
            },
            "fetch": {
              "content": {
                "contentView": "exact",
                "match": {
                  "text": "createStore"
                }
              }
            }
          },
          "why": "Read the exact content at this hit.",
          "confidence": "exact"
        }
      },
      "proofGrade": "text"
    },
    {
      "kind": "code",
      "path": "src/react.ts",
      "snippet": "import React from 'react' import{createStore}from './vanilla.ts' import type{",
      "matchIndices": [
        {
          "start": 35,
          "end": 46,
          "lineOffset": 0
        }
      ],
      "metadata": {
        "owner": "pmndrs",
        "repo": "zustand",
        "queryId": "q1"
      },
      "next": {
        "next.fetch": {
          "query": {
            "schema": "oql",
            "target": "content",
            "from": {
              "kind": "github",
              "repo": "pmndrs/zustand"
            },
            "scope": {
              "path": "src/react.ts"
            },
            "fetch": {
              "content": {
                "contentView": "exact",
                "match": {
                  "text": "createStore"
                }
              }
            }
          },
          "why": "Read the exact content at this hit.",
          "confidence": "exact"
        }
      },
      "proofGrade": "text"
    },
    {
      "kind": "code",
      "path": "src/react.ts",
      "snippet": "const createImpl = <T>(createState: StateCreator<T,[],[]>)=>{const api = createStore(createState)",
      "matchIndices": [
        {
          "start": 80,
          "end": 91,
          "lineOffset": 0
        }
      ],
      "metadata": {
        "owner": "pmndrs",
        "repo": "zustand",
        "queryId": "q1"
      },
      "next": {
        "next.fetch": {
          "query": {
            "schema": "oql",
            "target": "content",
            "from": {
              "kind": "github",
              "repo": "pmndrs/zustand"
            },
            "scope": {
              "path": "src/react.ts"
            },
            "fetch": {
              "content": {
                "contentView": "exact",
                "match": {
                  "text": "createStore"
                }
              }
            }
          },
          "why": "Read the exact content at this hit.",
          "confidence": "exact"
        }
      },
      "proofGrade": "text"
    },
    {
      "kind": "code",
      "path": "src/traditional.ts",
      "snippet": "import useSyncExternalStoreExports from 'use-sync-external-store/shim/with-selector' import{createStore}from './vanilla.ts' import type{",
      "matchIndices": [
        {
          "start": 94,
          "end": 105,
          "lineOffset": 0
        }
      ],
      "metadata": {
        "owner": "pmndrs",
        "repo": "zustand",
        "queryId": "q1"
      },
      "next": {
        "next.fetch": {
          "query": {
            "schema": "oql",
            "target": "content",
            "from": {
              "kind": "github",
              "repo": "pmndrs/zustand"
            },
            "scope": {
              "path": "src/traditional.ts"
            },
            "fetch": {
              "content": {
                "contentView": "exact",
                "match": {
                  "text": "createStore"
                }
              }
            }
          },
          "why": "Read the exact content at this hit.",
          "confidence": "exact"
        }
      },
      "proofGrade": "text"
    },
    {
      "kind": "code",
      "path": "src/traditional.ts",
      "snippet": ")=>{const api = createStore(createState)",
      "matchIndices": [
        {
          "start": 21,
          "end": 32,
          "lineOffset": 0
        }
      ],
      "metadata": {
        "owner": "pmndrs",
        "repo": "zustand",
        "queryId": "q1"
      },
      "next": {
        "next.fetch": {
          "query": {
            "schema": "oql",
            "target": "content",
            "from": {
              "kind": "github",
              "repo": "pmndrs/zustand"
            },
            "scope": {
              "path": "src/traditional.ts"
            },
            "fetch": {
              "content": {
                "contentView": "exact",
                "match": {
                  "text": "createStore"
                }
              }
            }
          },
          "why": "Read the exact content at this hit.",
          "confidence": "exact"
        }
      },
      "proofGrade": "text"
    }
  ],
  "pagination": {
    "currentPage": 1,
    "itemsPerPage": 5,
    "totalItems": 7,
    "totalPages": 2,
    "hasMore": true
  },
  "next": {
    "next.page": {
      "query": {
        "schema": "oql",
        "target": "code",
        "from": {
          "kind": "github",
          "repo": "pmndrs/zustand"
        },
        "scope": {
          "language": "ts"
        },
        "where": {
          "kind": "text",
          "value": "createStore"
        },
        "materialize": {
          "mode": "never"
        },
        "view": "paginated",
        "limit": 5,
        "page": 2
      },
      "why": "More result pages remain.",
      "confidence": "exact"
    }
  },
  "diagnostics": [
    {
      "code": "providerSemanticsApproximate",
      "severity": "info",
      "message": "GitHub code search returns path-level hits without line numbers; follow next.fetch for exact location/lines.",
      "blocksAnswer": false,
      "backend": "ghSearchCode"
    }
  ],
  "provenance": [
    {
      "backend": "ghSearchCode",
      "source": {
        "kind": "github",
        "repo": "pmndrs/zustand"
      }
    }
  ],
  "evidence": {
    "answerReady": false,
    "complete": false,
    "kind": "partial"
  }
}